%YAML 1.1
%TAG !u! tag:unity3d.com,2011:
--- !u!1045 &1
EditorBuildSettings:
  m_ObjectHideFlags: 0
  serializedVersion: 2
  m_Scenes:
  - enabled: 1
    path: Assets/Scenes/Menu.unity
    guid: 5723764402e414026b75cdacfed0c71d
  - enabled: 1
    path: Assets/Scenes/Game.unity
    guid: ab90323df5dc441378a244349eb4c76b
  m_configObjects: {}
